[
    // sidebar/terminal open/close/focus
    {
        "key": "cmd+e",
        "command": "workbench.files.action.focusFilesExplorer"
    },
    {
        "key": "cmd+t",
        "command": "workbench.action.terminal.toggleTerminal"
    },
    {
        "key": "cmd+g",
        "command": "workbench.scm.focus"
    },
    {
        "key": "cmd+r",
        "command": "workbench.action.replaceInFiles"
    },

    // explorer actions 
    {
        "key": "n",
        "command": "explorer.newFile",
        "when": "filesExplorerFocus && !inputFocus"
    },
    {
        "command": "renameFile",
        "key": "r",
        "when": "filesExplorerFocus && !inputFocus"
    },
    {
        "key": "shift+n",
        "command": "explorer.newFolder",
        "when": "explorerViewletFocus && !inputFocus"
    },
    {
        "key": "shift+n",
        "command": "workbench.action.newWindow",
        "when": "!explorerViewletFocus && !inputFocus"
    },
    {
        "command": "deleteFile",
        "key": "d",
        "when": "filesExplorerFocus && !inputFocus"
    },

    // normal mode
    {
        "key": "cmd+s",
        "command": "runCommands" ,
        "args":{"commands":[ 
            "extension.vim_escape",
            "workbench.action.files.save"
        ]},
        "when": "editorTextFocus && vim.active && vim.mode != 'Normal'"
    }
]